…
### User accounts

``` r
tt_user_videos("https://www.tiktok.com/@tiktok")
#> Getting user videos from ...
#>  ...waiting 1.5 seconds
#> # A tibble: 30 × 2
#>    user_id `video_urls <- ...`                                     
#>    <chr>   <chr>                                                   
#>  1 tiktok  https://www.tiktok.com/@tiktok/video/7165922997524516138
#>  2 tiktok  https://www.tiktok.com/@tiktok/video/7165648964333718827
#>  3 tiktok  https://www.tiktok.com/@tiktok/video/7164906805590527275
#>  4 tiktok  https://www.tiktok.com/@tiktok/video/7164830301753986350
#>  5 tiktok  https://www.tiktok.com/@tiktok/video/7164471429289790763
#>  6 tiktok  https://www.tiktok.com/@tiktok/video/7164102890544450859
#>  7 tiktok  https://www.tiktok.com/@tiktok/video/7162562810231246122
#>  8 tiktok  https://www.tiktok.com/@tiktok/video/7161881635972123950
#>  9 tiktok  https://www.tiktok.com/@tiktok/video/7161465157351247147
#> 10 tiktok  https://www.tiktok.com/@tiktok/video/7161100682450259242
#> # … with 20 more rows
```
…
