…
To find out what a user has liked, you can use:

``` r
tt_get_liked("jbgruber")
#> 
ℹ Getting user jbgruber

✔ Got user jbgruber [1.5s]
#> # A tibble: 98 × 14
#>    id             username create_time video_description
#>    <chr>          <chr>          <int> <chr>            
#>  1 7355902326877… america…  1712679503 "Stitch with @Mr…
#>  2 7268078476102… carterp…  1692231398 "Are you going t…
#>  3 7419692903460… okbrune…  1727531892 "Die ganze Wahrh…
#>  4 7405633113835… funny_s…  1724258332 "#fyp #fypシ #fu…
#>  5 7398532172048… lib0160…  1722605019 "Me and ChatGPT …
#>  6 7364763547038… vquasch…  1714742648 "Einige Medien u…
#>  7 7346577913858… ct_3003   1710508473 "Diese Platine f…
#>  8 7379856141972… lizthed…  1718256663 "Replying to @Ar…
#>  9 7415189182865… felixba…  1726483284 "Es geht wieder …
#> 10 7422673042553… grueneb…  1728225752 "Was Söder uns e…
#> # ℹ 88 more rows
#> # ℹ 10 more variables: region_code <chr>,
#> #   video_duration <int>, view_count <int>,
#> #   like_count <int>, comment_count <int>,
#> #   share_count <int>, music_id <chr>,
#> #   hashtag_names <list>, is_stem_verified <lgl>,
#> #   liked_by_user <chr>
```
…
And who they are followed by:

``` r
tt_user_follower_api("https://www.tiktok.com/@tiktok")
#> 
ℹ Getting user tiktok

✔ Got user tiktok [442ms]
#> # A tibble: 90 × 3
#>    username           display_name     following_user
#>    <chr>              <chr>            <chr>         
#>  1 galbruwt           reeyyp           tiktok        
#>  2 user5235623178011  👑কিং রানা 🥀    tiktok        
#>  3 rokyevay07         👑Rokye Vay👑    tiktok        
#>  4 babyylious08       babyylious08     tiktok        
#>  5 user8283823357     hd❤️‍🩹jaan❤️‍🩹hi❤️‍🩹❤️  tiktok        
#>  6 user45628309141722 سامي             tiktok        
#>  7 nu.th085           Nâu Thị          tiktok        
#>  8 halimeysll         halimeysll       tiktok        
#>  9 taru.tristiyanto   Taru Tristiyanto tiktok        
#> 10 vng.lan.hng09      Vương Lan Hường  tiktok        
#> # ℹ 80 more rows
```
…
Or you let the function extract if from a URL to a video:

``` r
tt_comments_api(video_id = "https://www.tiktok.com/@nicksinghtech/video/7195762648716152107?q=%23rstats")
#> 
ℹ Making initial request

✔ Making initial request [5.9s]
#> 
ℹ Parsing data

✔ Parsing data [58ms]
#> ── search id:  ─────────────────────────────────────────
#> # A tibble: 96 × 7
#>    text            video_id create_time id    like_count
#>    <chr>           <chr>          <int> <chr>      <int>
#>  1 You gotta know… 7195762…  1675394834 7195…        314
#>  2 R is the goat … 7195762…  1675457114 7196…        232
#>  3 Ppl who like E… 7195762…  1675458796 7196…        177
#>  4 Fair but doesn… 7195762…  1675395061 7195…        166
#>  5 babe RStudio i… 7195762…  1675624739 7196…         71
#>  6 Excel is the b… 7195762…  1675465779 7196…         71
#>  7 NOT THE SAS SL… 7195762…  1675494738 7196…         27
#>  8 I won't take t… 7195762…  1675691471 7197…         17
#>  9 No love for ST… 7195762…  1675656122 7196…         16
#> 10 I use SAS 🫡    7195762…  1675440749 7195…         16
#> # ℹ 86 more rows
#> # ℹ 2 more variables: parent_comment_id <chr>,
#> #   reply_count <int>
```
…
