Research API • traktok
…
Or you let the function extract if from a URL to a video:

tt_comments_api(video_id = "https://www.tiktok.com/@nicksinghtech/video/7195762648716152107?q=%23rstats")
#> 
ℹ Making initial request[K

✔ Making initial request [4.4s][K
#> 
ℹ Parsing data[K

✔ Parsing data [12ms][K
#> ── search id:  ─────────────────────────────────────────────────────────────────────────────────────────────────────────────────────────────────────
#> # A tibble: 96 × 7
#>    parent_comment_id   reply_count text    video_id create_time id    like_count
#>    <chr>                     <int> <chr>   <chr>          <int> <chr>      <int>
#>  1 7195762648716152107          10 You go… 7195762…  1675394834 7195…        314
#>  2 7195762648716152107          11 R is t… 7195762…  1675457114 7196…        232
#>  3 7195762648716152107           7 Ppl wh… 7195762…  1675458796 7196…        177
#>  4 7195765969909252906           0 Fair b… 7195762…  1675395061 7195…        166
#>  5 7195762648716152107           2 babe R… 7195762…  1675624739 7196…         71
#>  6 7195762648716152107          12 Excel … 7195762…  1675465779 7196…         71
#>  7 7195762648716152107           3 NOT TH… 7195762…  1675494738 7196…         27
#>  8 7196040663480222506           0 I won'… 7195762…  1675691471 7197…         17
#>  9 7195762648716152107           2 No lov… 7195762…  1675656122 7196…         16
#> 10 7195762648716152107           2 I use … 7195762…  1675440749 7195…         16
#> # ℹ 86 more rows
…
