Unofficial API • traktok
…
rstats_df <- tt_search_hidden("#rstats", max_pages = 2)
#> 
ℹ Getting page 1
⏲ waiting 0.5 seconds
ℹ Getting page 1
✔ Got page 1. Found 12 videos. [1.9s]
#> 
ℹ Getting page 2
✔ Got page 2. Found 12 videos. [690ms]
rstats_df
#> # A tibble: 24 × 20
#>    video_id  video_timestamp     video_url video_length video_title
#>    <chr>     <dttm>              <glue>           <int> <chr>      
#>  1 71151144… 2022-06-30 19:17:53 https://…          135 "R for Beg…
#>  2 72522261… 2023-07-05 07:01:45 https://…           36 "Wow!!! TH…
#>  3 72420686… 2023-06-07 22:05:16 https://…           34 "R GRAPHIC…
#>  4 72134135… 2023-03-22 16:49:12 https://…            6 "R and me …
#>  5 72576898… 2023-07-20 00:23:40 https://…           56 "Pie chart…
#>  6 72999870… 2023-11-10 23:58:21 https://…           51 "Quick R Q…
#>  7 72783048… 2023-09-13 13:40:21 https://…           36 "Quick R Q…
#>  8 73029706… 2023-11-19 00:56:09 https://…          163 "What is c…
#>  9 71670108… 2022-11-17 15:42:56 https://…           58 "Here’s an…
#> 10 72933174… 2023-10-24 00:36:48 https://…            9 "#CapCut #…
#> # ℹ 14 more rows
#> # ℹ 15 more variables: video_diggcount <int>,
#> #   video_sharecount <int>, video_commentcount <int>,
#> #   video_playcount <int>, video_is_ad <lgl>, author_name <chr>,
#> #   author_nickname <chr>, author_followercount <int>,
#> #   author_followingcount <int>, author_heartcount <int>,
#> #   author_videocount <int>, author_diggcount <int>, …
…
Once you have this authorSecId you can look up a maximum
of 5,000 followers per account:

tt_get_follower(secuid = "MS4wLjABAAAAwiH32UMb5RenqEN7duyfLIeGQgSIx9WtgtOILt55q6ueUXgz4gHqZC5HFx4nabPi",
                verbose = FALSE)
#> 
#> # A tibble: 1,116 × 27
#>    avatarLarger             avatarMedium avatarThumb commentSetting
#>    <chr>                    <chr>        <chr>                <int>
#>  1 https://p16-sign-sg.tik… https://p16… https://p1…              0
#>  2 https://p16-sign-va.tik… https://p16… https://p1…              0
#>  3 https://p16-sign-va.tik… https://p16… https://p1…              0
#>  4 https://p16-sign-va.tik… https://p16… https://p1…              0
#>  5 https://p16-sign-va.tik… https://p16… https://p1…              0
#>  6 https://p16-sign-va.tik… https://p16… https://p1…              0
#>  7 https://p16-sign-va.tik… https://p16… https://p1…              0
#>  8 https://p16-sign-va.tik… https://p16… https://p1…              0
#>  9 https://p16-sign-va.tik… https://p16… https://p1…              0
#> 10 https://p16-sign-va.tik… https://p16… https://p1…              0
#> # ℹ 1,106 more rows
#> # ℹ 23 more variables: downloadSetting <int>, duetSetting <int>,
#> #   ftc <lgl>, id <chr>, isADVirtual <lgl>, nickname <chr>,
#> #   openFavorite <lgl>, privateAccount <lgl>, relation <int>,
#> #   secUid <chr>, secret <lgl>, signature <chr>,
#> #   stitchSetting <int>, ttSeller <lgl>, uniqueId <chr>,
#> #   verified <lgl>, diggCount <int>, followerCount <int>, …

Likewise, you can also check who this account follows:

tt_get_following(secuid = "MS4wLjABAAAAwiH32UMb5RenqEN7duyfLIeGQgSIx9WtgtOILt55q6ueUXgz4gHqZC5HFx4nabPi",
                 verbose = FALSE)
#> 
#> # A tibble: 489 × 28
#>    avatarLarger             avatarMedium avatarThumb commentSetting
#>    <chr>                    <chr>        <chr>                <int>
#>  1 https://p16-sign-va.tik… https://p16… https://p1…              0
#>  2 https://p16-sign-va.tik… https://p16… https://p1…              0
#>  3 https://p16-sign-va.tik… https://p16… https://p1…              0
#>  4 https://p16-sign-va.tik… https://p16… https://p1…              0
#>  5 https://p16-sign-va.tik… https://p16… https://p1…              0
#>  6 https://p16-sign-va.tik… https://p16… https://p1…              0
#>  7 https://p16-sign-va.tik… https://p16… https://p1…              0
#>  8 https://p16-sign-va.tik… https://p16… https://p1…              0
#>  9 https://p16-sign-va.tik… https://p16… https://p1…              0
#> 10 https://p16-sign-va.tik… https://p16… https://p1…              0
#> # ℹ 479 more rows
#> # ℹ 24 more variables: downloadSetting <int>, duetSetting <int>,
#> #   ftc <lgl>, id <chr>, isADVirtual <lgl>, nickname <chr>,
#> #   openFavorite <lgl>, privateAccount <lgl>, relation <int>,
#> #   secUid <chr>, secret <lgl>, signature <chr>,
#> #   stitchSetting <int>, ttSeller <lgl>, uniqueId <chr>,
#> #   verified <lgl>, diggCount <int>, followerCount <int>, …
…
